<svg width="17" height="16" viewBox="0 0 17 16" fill="none" xmlns="http://www.w3.org/2000/svg">
<rect x="7" y="14.5" width="3" height="3" rx="1.5" transform="rotate(-90 7 14.5)" fill="#CDAC00"/>
<rect x="7" y="11" width="9" height="3" rx="1.5" transform="rotate(-90 7 11)" fill="#CDAC00"/>
</svg>
